module gitlab.com/postgres-ai/joe

go 1.15

require (
	github.com/AlekSi/pointer v1.1.0
	github.com/docker/docker v20.10.5+incompatible // indirect
	github.com/dustin/go-humanize v1.0.0
	github.com/hako/durafmt v0.0.0-20191009132224-3f39dc1ed9f4
	github.com/ilyakaznacheev/cleanenv v1.2.5
	github.com/jackc/pgconn v1.7.0
	github.com/jackc/pgtype v1.6.2
	github.com/jackc/pgx/v4 v4.9.0
	github.com/lib/pq v1.8.0
	github.com/moby/term v0.0.0-20201216013528-df9cb8a40635 // indirect
	github.com/olekukonko/tablewriter v0.0.4
	github.com/pkg/errors v0.9.1
	github.com/rs/xid v1.2.1
	github.com/sergi/go-diff v1.1.0
	github.com/sethvargo/go-password v0.2.0
	github.com/slack-go/slack v0.9.2
	github.com/stretchr/testify v1.7.0
	gitlab.com/postgres-ai/database-lab/v2 v2.4.0
	gopkg.in/yaml.v2 v2.4.0
)
